%YAML 1.1
%TAG !u! tag:unity3d.com,2011:
--- !u!114 &11400000
MonoBehaviour:
  m_ObjectHideFlags: 0
  m_CorrespondingSourceObject: {fileID: 0}
  m_PrefabInstance: {fileID: 0}
  m_PrefabAsset: {fileID: 0}
  m_GameObject: {fileID: 0}
  m_Enabled: 1
  m_EditorHideFlags: 0
  m_Script: {fileID: 11500000, guid: 468a46d0ae32c3544b7d98094e6448a9, type: 3}
  m_Name: AddressableAssetSettings
  m_EditorClassIdentifier: 
  m_DefaultGroup: 451d0054063dcab4a85105480d06dcbb
  m_CachedHash:
    serializedVersion: 2
    Hash: 00000000000000000000000000000000
  m_OptimizeCatalogSize: 0
  m_BuildRemoteCatalog: 0
  m_BundleLocalCatalog: 0
  m_CatalogRequestsTimeout: 0
  m_DisableCatalogUpdateOnStart: 0
  m_IgnoreUnsupportedFilesInBuild: 0
  m_UniqueBundleIds: 0
  m_NonRecursiveBuilding: 1
  m_CCDEnabled: 0
  m_maxConcurrentWebRequests: 500
  m_ContiguousBundles: 1
  m_StripUnityVersionFromBundleBuild: 0
  m_DisableVisibleSubAssetRepresentations: 0
  m_ShaderBundleNaming: 0
  m_ShaderBundleCustomNaming: 
  m_MonoScriptBundleNaming: 0
  m_MonoScriptBundleCustomNaming: 
  m_RemoteCatalogBuildPath:
    m_Id: 
  m_RemoteCatalogLoadPath:
    m_Id: 
  m_ContentStateBuildPath: 
  m_BuildAddressablesWithPlayerBuild: 0
  m_overridePlayerVersion: 
  m_GroupAssets:
  - {fileID: 11400000, guid: 120ed437c8918614b95af3b4793431e9, type: 2}
  - {fileID: 11400000, guid: e2e54b17c87eb224f9a4ac6c88f7253f, type: 2}
  m_BuildSettings:
    m_CompileScriptsInVirtualMode: 0
    m_CleanupStreamingAssetsAfterBuilds: 1
    m_LogResourceManagerExceptions: 1
    m_BundleBuildPath: Temp/com.unity.addressables/AssetBundles
  m_ProfileSettings:
    m_Profiles:
    - m_InheritedParent: 
      m_Id: 5d39e17b46d630140bdeac2b8ff46f5b
      m_ProfileName: Default
      m_Values:
      - m_Id: 594f55aae32dc934ea9a9177a2e60556
        m_Value: '[UnityEditor.EditorUserBuildSettings.activeBuildTarget]'
      - m_Id: cf37c3aeec23aa24eb785be6d172944e
        m_Value: '[UnityEngine.AddressableAssets.Addressables.BuildPath]/[BuildTarget]'
      - m_Id: 9b1ea06088f345349920d6c379fdfb71
        m_Value: '{UnityEngine.AddressableAssets.Addressables.RuntimePath}/[BuildTarget]'
      - m_Id: 3004c802e296192449d6f1e127e84d1e
        m_Value: ServerData/[BuildTarget]
      - m_Id: 8ba9f9721face824ea3e3422936256d1
        m_Value: http://[PrivateIpAddress]:[HostingServicePort]
    m_ProfileEntryNames:
    - m_Id: 594f55aae32dc934ea9a9177a2e60556
      m_Name: BuildTarget
      m_InlineUsage: 0
    - m_Id: cf37c3aeec23aa24eb785be6d172944e
      m_Name: Local.BuildPath
      m_InlineUsage: 0
    - m_Id: 9b1ea06088f345349920d6c379fdfb71
      m_Name: Local.LoadPath
      m_InlineUsage: 0
    - m_Id: 3004c802e296192449d6f1e127e84d1e
      m_Name: Remote.BuildPath
      m_InlineUsage: 0
    - m_Id: 8ba9f9721face824ea3e3422936256d1
      m_Name: Remote.LoadPath
      m_InlineUsage: 0
    m_ProfileVersion: 1
  m_LabelTable:
    m_LabelNames:
    - default
  m_SchemaTemplates: []
  m_GroupTemplateObjects:
  - {fileID: 11400000, guid: 937b4554cda75514cbbb5a9a320f4be5, type: 2}
  m_InitializationObjects: []
  m_CertificateHandlerType:
    m_AssemblyName: 
    m_ClassName: 
  m_ActivePlayerDataBuilderIndex: 3
  m_DataBuilders:
  - {fileID: 11400000, guid: 65b9b946ff87d654696e03b7e8cdb179, type: 2}
  - {fileID: 11400000, guid: 99120536c4f6966418f19231907cf6b0, type: 2}
  - {fileID: 11400000, guid: 2ddd5e0e20d050b4fb8a3156595db730, type: 2}
  - {fileID: 11400000, guid: decbe677accb348439bbc6bcd29d6396, type: 2}
  m_ActiveProfileId: 5d39e17b46d630140bdeac2b8ff46f5b
  m_HostingServicesManager:
    m_HostingServiceInfos: []
    m_Settings: {fileID: 11400000}
    m_NextInstanceId: 0
    m_RegisteredServiceTypeRefs: []
